team
…
# get country that on average produce the worst rated bean
choco %>% group_by(CountryBeanOrigin) %>% summarise(avgRating = mean(Rating)) %>% arrange(avgRating) %>% head(1)

## # A tibble: 1 x 2
##   CountryBeanOrigin avgRating
##   <chr>                 <dbl>
## 1 Puerto Rico            2.71

choco %>% group_by(CountryBeanOrigin) %>% summarise(bestRating = max(Rating), worstRating = min(Rating), avgRating = mean(Rating)) %>% arrange(-avgRating) 

## # A tibble: 62 x 4
##    CountryBeanOrigin   bestRating worstRating avgRating
##    <chr>                    <dbl>       <dbl>     <dbl>
##  1 Tobago                    4           3.25      3.62
##  2 Sao Tome & Principe       3.5         3.5       3.5 
##  3 Solomon Islands           4           3         3.45
##  4 Congo                     3.75        2.75      3.32
##  5 Thailand                  3.75        2.75      3.3 
##  6 Cuba                      3.75        2.5       3.29
##  7 Papua New Guinea          4           2.5       3.28
##  8 Haiti                     4           2.5       3.27
##  9 Madagascar                4           2.25      3.26
## 10 Vietnam                   4           2.75      3.26
## # ... with 52 more rows
…
Through our analysis, we notice that there only 6 counties that are able to produce coco beans with 4 distinct characteristics out of 10 countries. We can see that the beans Country of origin does play a role in determining the flavor (rating) of the beans. As the county with the average best rated beans are from Tobago and the average worst rated beans are from Puerto Rico. However, just because Puerto Rico has the worst average rating compare to the other countries, it does not mean Puerto Rico produces the worst beans. As there are still production faculties that can produce beans ranked 3.5. That is comparable to Sao Tome & Principle (the top 2nd Country by average rating). So at the end of the day we should be careful in grouping regions together within the same country as they can have wildly different results.

5. If you work on this lab by yourself, brainstorm two analyses you would like to perform. If you work with a teammate, brainstorm at least three analyses with your teammate. Describe in plain language what comparisons are you making. Create suitable numerical and graphical summaries for your analyses. Describe the results.

Comparison of Company to Chocolate Rating, Does Company effect Rating?

groupings = summarise(group_by(choco, Company), avgRating=mean(Rating))
groupings

## # A tibble: 570 x 2
##    Company                       avgRating
##    <chr>                             <dbl>
##  1 5150                               3.32
##  2 A. Morin                           3.4 
##  3 Acalli                             3.56
##  4 Adi aka Fijiana (Easy In Ltd)      3.25
##  5 Aelan                              2.75
##  6 Aequare (Gianduja)                 2.88
##  7 Ah Cacao                           3   
##  8 Akesson's (Pralus)                 3.08
##  9 Alain Ducasse                      2.83
## 10 Alexandre                          3.5 
## # ... with 560 more rows
…
Show me a graph of what was the average rating by year so we can get a good idea what was happening in the chocolate and cocoa market.

groupings = summarise(group_by(choco, SpecificBeanOrigin), avgRating=mean(Rating))
groupings

## # A tibble: 1,544 x 2
##    SpecificBeanOrigin                                      avgRating
##    <chr>                                                       <dbl>
##  1 "\"Classic Dark\", Ecuador-Guatemala-Dom. Rep."              3.5 
##  2 "\"Cocoa Nibs\", Hispaniola w/ nibs"                         3.75
##  3 "\"heirloom\", Arriba Nacional"                              3.5 
##  4 "\"Peace of Wild Things\""                                   3   
##  5 "\"Roasted Cocoa Nibs\", Latin America Blend, b.060321"      3   
##  6 "100 percent"                                                1.5 
##  7 "2009 Hapa Nibby, Dominican Rep., Bali"                      3.75
##  8 "A case of the Xerces Blues, triple roast"                   3.5 
##  9 "Abinao, West Africa"                                        2.5 
## 10 "ABOCFA Coop"                                                4   
## # ... with 1,534 more rows
…
